<?xml version="1.0"?>
<svg xmlns="http://www.w3.org/2000/svg" xmlns:xlink="http://www.w3.org/1999/xlink" version="1.1" id="Capa_1" x="0px" y="0px" viewBox="0 0 512 512" style="enable-background:new 0 0 512 512;" xml:space="preserve" width="512px" height="512px" class=""><g><path style="fill:#2196F3" d="M504.426,239.504c-0.025-13.224-10.865-24.023-24.089-23.999l-19.92,0.038  c-5.462-27.752-16.399-53.533-31.69-76.14l14.048-14.101c9.333-9.368,9.304-24.67-0.064-34.003l-22.712-22.627  c-9.369-9.333-24.67-9.305-34.003,0.064l-14.048,14.101c-22.665-15.206-48.486-26.047-76.258-31.404l-0.037-19.92  c-0.025-13.224-10.865-24.023-24.089-23.999l-32.059,0.061C226.28,7.6,215.481,18.441,215.505,31.665l0.037,19.92  c-27.752,5.462-53.533,16.4-76.14,31.69l-14.101-14.047c-9.369-9.333-24.67-9.305-34.003,0.063L68.672,92.003  c-9.333,9.369-9.304,24.67,0.064,34.003l14.101,14.048c-15.206,22.665-26.047,48.485-31.404,76.258l-19.92,0.038  c-13.224,0.024-24.024,10.865-23.999,24.089l0.06,32.059c0.025,13.224,10.865,24.023,24.089,23.999l19.92-0.037  c5.462,27.752,16.4,53.532,31.69,76.139L69.226,386.7c-9.333,9.369-9.304,24.67,0.064,34.003l22.712,22.627  c9.369,9.333,24.67,9.304,34.003-0.064l14.048-14.101c22.664,15.206,48.485,26.047,76.258,31.404l0.037,19.92  c0.025,13.224,10.865,24.024,24.089,23.999l32.059-0.06c13.224-0.025,24.024-10.866,23.999-24.089l-0.037-19.92  c27.752-5.462,53.532-16.399,76.14-31.689l14.101,14.048c9.369,9.333,24.67,9.304,34.003-0.064l22.627-22.712  c9.333-9.369,9.304-24.67-0.064-34.003l-14.101-14.048c15.206-22.664,26.047-48.486,31.404-76.258l19.92-0.037  c13.224-0.025,24.024-10.866,23.999-24.089L504.426,239.504z M256.001,424.309c-92.955,0-168.309-75.354-168.309-168.309  S163.046,87.691,256.001,87.691S424.31,163.045,424.31,256S348.955,424.309,256.001,424.309z" data-original="#76FFD9" class="" data-old_color="#76FFD9"/><path style="fill:#1670B7" d="M256.001,67.654C151.98,67.654,67.655,151.98,67.655,256s84.325,188.346,188.346,188.346  c104.02,0,188.346-84.326,188.346-188.346S360.02,67.654,256.001,67.654z M256.001,424.309  c-92.955,0-168.309-75.354-168.309-168.309S163.046,87.691,256.001,87.691S424.31,163.045,424.31,256  S348.955,424.309,256.001,424.309z" data-original="#5DE0BF" class="active-path" data-old_color="#2196F3"/><g>
	<path style="fill:#E1EAF8;" d="M299.801,302.267c-2.631-0.751-10.854-3.733-10.866-10.34l-0.061-19.384l-64.555,0.14l0.012,19.385   c0.011,5.824-6.364,8.851-9.676,10.01l42.045,25.741L299.801,302.267z" data-original="#E1EAF8"/>
	<path style="fill:#E1EAF8;" d="M288.935,291.928l-0.051-16.228c-8.478,16.481-25.641,27.763-45.451,27.763   c-7.958,0-15.49-1.82-22.206-5.066c-2.09,1.871-4.777,3.054-6.571,3.682l42.045,25.741l43.1-25.552   C297.17,301.516,288.947,298.534,288.935,291.928z" data-original="#E1EAF8"/>
</g><path style="fill:#C1C8D2;" d="M288.884,275.699l-0.01-3.156l-64.555,0.14l0.012,19.385c0.005,2.669-1.336,4.745-3.105,6.329  c6.715,3.245,14.247,5.066,22.206,5.066C263.243,303.462,280.406,292.181,288.884,275.699z" data-original="#C1C8D2"/><path style="fill:#FFA816;" d="M304.606,151.405c-24.424,3.535-56.485-19.43-80.357,0.15c-14.456,0.027-23.645,11.556-23.616,26.923  c0.027,14.483,8.024,43.227,8.024,43.227l0.015,7.761c-0.027-14.097,8.256-37.823,8.256-37.823  c41.44-0.078,75.561,11.768,87.786,16.615l-0.001-0.751l0.001,0.751c0.886,0.352,1.651,0.664,2.301,0.935  C313.555,181.188,307.533,158.023,304.606,151.405z" data-original="#FFA816"/><path style="fill:#E1EAF8;" d="M208.67,229.467c0.056,30.006,21.21,57.994,48.043,57.944c26.833-0.051,48.098-26.599,48.042-56.605  l-0.042-22.547c-12.225-4.849-46.347-16.695-87.786-16.616C216.926,191.644,208.644,215.37,208.67,229.467z" data-original="#E1EAF8"/><path style="fill:#C1C8D2;" d="M225.991,236.418c-0.818-38.966,5.659-37.005,5.659-37.005c11.762-2.714,29.2-2.021,48.254,0.729  c-16.389-4.396-38.395-8.546-62.98-8.5c0,0-8.282,23.727-8.256,37.823c0.052,27.846,18.279,53.94,42.349,57.514  C240.592,278.745,226.484,259.875,225.991,236.418z" data-original="#C1C8D2"/><path style="fill:#2196F3" d="M352.958,341.854c-0.025-13.447-8.529-27.786-23.163-31.855l-29.99-7.729  c-0.001,0-0.003-0.001-0.004-0.001l-43.1,25.552l-42.045-25.741c-0.448,0.156-0.844,0.282-1.156,0.372l-29.961,7.841  c-14.619,4.126-23.067,18.496-23.042,31.943l0.016,8.656c0.009,5.063,4.705,9.16,10.487,9.149l171.52-0.342  c5.783-0.011,10.462-4.125,10.453-9.188L352.958,341.854z" data-original="#76FFD9" class="" data-old_color="#76FFD9"/><g>
	<path style="fill:#FFC843;" d="M195.533,359.565v-9.649c0-4.942-2.24-9.652-6.162-12.955l-20.572-17.159   c-5.391,6.279-8.317,14.515-8.302,22.432l0.016,8.656c0.006,3.426,2.162,6.405,5.345,7.973c1.335,0.445,2.622,0.703,3.669,0.703   h26.007V359.565z" data-original="#FFC843"/>
	<path style="fill:#FFC843;" d="M352.974,350.509l-0.016-8.656c-0.013-6.909-2.269-14.05-6.44-19.916l-18.5,15.025   c-3.922,3.303-6.162,8.013-6.162,12.955v9.649h22.349C349.183,358.85,352.983,355.07,352.974,350.509z" data-original="#FFC843"/>
	<path style="fill:#FFC843;" d="M304.606,151.405c-10.604,1.535-22.65-1.926-34.838-4.731c-15.883-3.656-32.012-6.198-45.52,4.881   c-0.115,0-0.226,0.007-0.341,0.009c-1.673,1.727,1.492,6.631,1.492,6.631s-6.345,3.006-9.017,15.028   c-1.462,6.578-1.069,13.63,0.988,18.423c18.812,0.003,36.093,2.455,50.49,5.58c17.164,3.726,30.228,8.405,36.852,11.033   c0.886,0.352,1.651,0.664,2.301,0.935C313.555,181.188,307.533,158.023,304.606,151.405z" data-original="#FFC843"/>
</g><path style="fill:#434C54" d="M511.939,239.49c-0.032-17.369-14.188-31.498-31.617-31.498l-13.817,0.025  c-5.457-24.098-14.905-46.8-28.15-67.633l9.742-9.78c12.282-12.327,12.245-32.346-0.083-44.629l-22.712-22.627  c-5.938-5.915-13.847-9.172-22.273-9.172c-8.472,0-16.411,3.287-22.357,9.256l-9.742,9.779  c-20.884-13.166-43.621-22.528-67.738-27.895l-0.026-13.817C303.133,14.131,288.976,0,271.548,0l-32.059,0.061  c-8.403,0.016-16.315,3.32-22.277,9.305c-5.963,5.986-9.237,13.91-9.222,22.312l0.026,13.818  c-24.099,5.457-46.801,14.906-67.633,28.15l-9.779-9.743c-5.937-5.915-13.847-9.172-22.273-9.172  c-8.472,0-16.411,3.287-22.357,9.256L63.348,86.699c-12.281,12.328-12.242,32.348,0.084,44.63l9.78,9.743  c-13.165,20.883-22.528,43.619-27.895,67.738l-13.817,0.025c-8.403,0.016-16.315,3.32-22.277,9.305s-9.238,13.909-9.222,22.311  l0.06,32.06c0.033,17.368,14.19,31.498,31.618,31.498l13.818-0.026c5.457,24.098,14.905,46.8,28.149,67.633l-9.743,9.78  c-12.281,12.328-12.242,32.348,0.084,44.63l22.712,22.626c5.937,5.915,13.847,9.172,22.273,9.172c8.472,0,16.411-3.287,22.357-9.256  l9.743-9.779c20.883,13.165,43.62,22.528,67.737,27.895l0.026,13.817C208.868,497.87,223.025,512,240.393,512  c0.005,0,0.055,0,0.059,0l32.058-0.061c8.403-0.016,16.315-3.32,22.277-9.305c5.963-5.986,9.238-13.91,9.222-22.312l-0.026-13.817  c24.099-5.457,46.797-14.904,67.633-28.15l9.779,9.743c5.937,5.914,13.846,9.171,22.272,9.172c0.001,0,0.001,0,0.002,0  c8.47,0,16.409-3.287,22.356-9.256l22.627-22.712c12.281-12.328,12.242-32.348-0.084-44.63l-9.779-9.742  c13.165-20.884,22.528-43.621,27.895-67.738l13.817-0.026c17.401-0.032,31.532-14.215,31.499-31.618L511.939,239.49z   M480.473,288.137l-19.92,0.038c-3.596,0.007-6.682,2.561-7.364,6.09c-5.099,26.436-15.282,51.162-30.266,73.495  c-2.004,2.986-1.61,6.972,0.937,9.509l14.101,14.047c6.457,6.433,6.477,16.92,0.044,23.378l-22.626,22.711  c-3.107,3.118-7.264,4.835-11.711,4.835h-0.001c-4.423-0.001-8.566-1.702-11.666-4.791l-14.101-14.047  c-2.547-2.537-6.535-2.914-9.512-0.901c-22.277,15.068-46.966,25.344-73.382,30.542c-3.527,0.693-6.07,3.79-6.063,7.386l0.038,19.92  c0.008,4.389-1.711,8.537-4.841,11.677c-3.13,3.142-7.27,4.876-11.659,4.884l-32.058,0.061l-0.031,7.514v-7.514  c-9.098,0-16.513-7.402-16.53-16.499l-0.037-19.92c-0.007-3.597-2.56-6.683-6.091-7.365c-26.435-5.099-51.162-15.283-73.494-30.267  c-1.275-0.856-2.734-1.273-4.184-1.273c-1.944,0-3.872,0.752-5.326,2.211l-14.048,14.101c-3.107,3.117-7.265,4.834-11.712,4.834  c-4.422,0-8.566-1.701-11.666-4.791l-22.712-22.626c-6.457-6.433-6.477-16.921-0.044-23.378l14.048-14.101  c2.538-2.547,2.915-6.534,0.901-9.512c-15.068-22.276-25.343-46.965-30.541-73.381c-0.693-3.523-3.783-6.063-7.373-6.063  c-0.005,0-0.009,0-0.014,0l-19.951,0.038c-9.098,0-16.513-7.402-16.53-16.499l-0.06-32.059c-0.008-4.389,1.711-8.537,4.841-11.677  c3.13-3.142,7.269-4.876,11.659-4.884l19.92-0.037c3.596-0.007,6.682-2.561,7.364-6.09c5.099-26.437,15.282-51.163,30.266-73.495  c2.004-2.985,1.61-6.972-0.937-9.509l-14.102-14.048c-6.457-6.433-6.477-16.921-0.044-23.378l22.627-22.712  c3.106-3.117,7.264-4.834,11.711-4.834c4.422,0,8.566,1.701,11.666,4.791L134.1,88.596c2.548,2.537,6.535,2.917,9.513,0.9  c22.274-15.066,46.963-25.342,73.381-30.541c3.527-0.693,6.07-3.79,6.063-7.386l-0.037-19.921c-0.008-4.389,1.711-8.536,4.84-11.676  c3.129-3.141,7.27-4.876,11.659-4.884l32.088-0.06c9.098,0,16.513,7.402,16.53,16.5l0.038,19.919  c0.007,3.597,2.56,6.683,6.091,7.365c26.434,5.099,51.161,15.282,73.495,30.267c2.986,2.004,6.972,1.61,9.509-0.938l14.048-14.102  c3.106-3.117,7.264-4.834,11.711-4.834c4.422,0,8.566,1.701,11.666,4.791l22.712,22.627c6.457,6.433,6.477,16.92,0.043,23.377  l-14.048,14.101c-2.538,2.547-2.915,6.534-0.901,9.512c15.068,22.276,25.343,46.965,30.542,73.381  c0.693,3.524,3.783,6.063,7.373,6.063c0.004,0,0.009,0,0.014,0l19.952-0.037c9.098,0,16.512,7.402,16.529,16.498l0.061,32.059  C496.989,280.691,489.588,288.121,480.473,288.137z" data-original="#434C54" class=""/></g> </svg>
