<?xml version="1.0"?>
<svg xmlns="http://www.w3.org/2000/svg" xmlns:xlink="http://www.w3.org/1999/xlink" version="1.1" id="Capa_1" x="0px" y="0px" viewBox="0 0 512.001 512.001" style="enable-background:new 0 0 512.001 512.001;" xml:space="preserve" width="512px" height="512px" class=""><g><path style="fill:#FFFFFF;" d="M119.576,376.246h369.583c8.856,0,16.034-7.178,16.034-16.034V103.668  c0-8.856-7.178-16.034-16.034-16.034H119.576c-8.856,0-16.034,7.178-16.034,16.034v256.545  C103.542,369.068,110.721,376.246,119.576,376.246z" data-original="#FFFFFF" class=""/><polyline style="fill:#FF6464;" points="271.945,336.134 271.825,271.998 223.723,272.088 223.843,336.224 " data-original="#FF6464"/><polyline style="fill:#FFC843;" points="352.116,335.984 351.754,143.575 303.652,143.665 304.013,336.074 " data-original="#FFC843"/><polyline style="fill:#2196F3" points="432.286,335.832 432.014,191.526 383.912,191.617 384.184,335.923 " data-original="#76FFD9" class="" data-old_color="#76FFD9"/><rect x="255.771" y="239.818" transform="matrix(0.0019 1 -1 0.0019 591.1703 -64.5559)" style="fill:#FFA816;" width="144.307" height="48.102" data-original="#FFA816"/><rect x="223.762" y="272.042" transform="matrix(-1 0.0019 -0.0019 -1 496.1736 575.6812)" style="fill:#FF904D;" width="48.102" height="32.068" data-original="#FF904D"/><rect x="231.832" y="296.105" transform="matrix(-0.0019 -1 1 -0.0019 -71.8184 568.6303)" style="fill:#FF8025;" width="32.068" height="48.102" data-original="#FF8025"/><rect x="368.07" y="271.728" transform="matrix(0.0019 1 -1 0.0019 703.1558 -112.9348)" style="fill:#106EB8" width="80.165" height="48.102" data-original="#5DE0BF" class="active-path" data-old_color="#2196F3"/><g>
	<path style="fill:#E1EAF8;" d="M146.437,367.411c-2.632-0.752-10.857-3.734-10.869-10.343l-0.061-19.389l-64.573,0.14l0.012,19.39   c0.011,5.825-6.366,8.854-9.679,10.013l42.057,25.749L146.437,367.411z" data-original="#E1EAF8"/>
	<path style="fill:#E1EAF8;" d="M135.567,357.07l-0.051-16.232c-8.48,16.486-25.648,27.771-45.465,27.771   c-7.96,0-15.495-1.821-22.212-5.068c-2.09,1.872-4.778,3.054-6.573,3.683l42.057,25.749l43.113-25.559   C143.805,366.66,135.58,363.678,135.567,357.07z" data-original="#E1EAF8"/>
</g><path style="fill:#D8E0EA;" d="M135.517,340.836l-0.01-3.157l-64.573,0.14l0.012,19.39c0.005,2.67-1.337,4.746-3.106,6.33  c6.717,3.246,14.251,5.068,22.212,5.068C109.867,368.607,127.037,357.323,135.517,340.836z" data-original="#D8E0EA"/><path style="fill:#FFA816;" d="M151.242,216.506c-24.431,3.537-56.501-19.435-80.38,0.15c-14.46,0.027-23.652,11.56-23.623,26.931  c0.027,14.487,8.026,43.24,8.026,43.24l0.015,7.763c-0.027-14.101,8.259-37.834,8.259-37.834  c41.452-0.078,75.582,11.771,87.811,16.62l-0.001-0.752l0.001,0.752c0.886,0.352,1.652,0.664,2.302,0.935  C160.195,246.297,154.17,223.126,151.242,216.506z" data-original="#FFA816"/><path style="fill:#FFFFFF;" d="M55.279,294.591c0.056,30.015,21.216,58.011,48.057,57.961c26.841-0.051,48.112-26.606,48.056-56.621  l-0.042-22.554c-12.229-4.85-46.36-16.699-87.811-16.62C63.538,256.757,55.252,280.49,55.279,294.591z" data-original="#FFFFFF" class=""/><path style="fill:#E1EAF8;" d="M72.606,301.544c-0.818-38.977,5.661-37.016,5.661-37.016c11.765-2.715,29.208-2.021,48.267,0.73  c-16.394-4.397-38.407-8.548-62.998-8.502c0,0-8.285,23.733-8.259,37.834c0.052,27.854,18.284,53.956,42.361,57.53  C87.211,343.883,73.098,325.007,72.606,301.544z" data-original="#E1EAF8"/><path style="fill:#2196F3" d="M199.609,407.01c-0.025-13.451-8.531-27.794-23.169-31.865l-29.999-7.731  c-0.001,0-0.003-0.001-0.004-0.001l-43.113,25.559l-42.057-25.749c-0.448,0.156-0.844,0.282-1.156,0.372l-29.97,7.844  C15.518,379.565,7.067,393.94,7.092,407.39l0.016,8.658c0.009,5.065,4.706,9.162,10.49,9.151l171.569-0.342  c5.784-0.011,10.465-4.126,10.456-9.191L199.609,407.01z" data-original="#76FFD9" class="" data-old_color="#76FFD9"/><g>
	<path style="fill:#106EB8" d="M42.14,424.726v-9.651c0-4.944-2.241-9.655-6.164-12.959l-20.578-17.164   c-5.392,6.28-8.32,14.519-8.305,22.439l0.016,8.658c0.006,3.427,2.163,6.407,5.346,7.975c1.336,0.445,2.623,0.703,3.67,0.703H42.14   V424.726z" data-original="#5DE0BF" class="active-path" data-old_color="#2196F3"/>
	<path style="fill:#106EB8" d="M199.625,415.668l-0.016-8.658c-0.013-6.911-2.27-14.054-6.442-19.921l-18.505,15.029   c-3.923,3.304-6.164,8.015-6.164,12.958v9.651h22.355C195.833,424.011,199.634,420.231,199.625,415.668z" data-original="#5DE0BF" class="active-path" data-old_color="#2196F3"/>
</g><path style="fill:#FFC843;" d="M151.242,216.506c-10.608,1.535-22.656-1.926-34.848-4.732c-15.888-3.657-32.021-6.2-45.533,4.882  c-0.115,0-0.226,0.007-0.341,0.009c-1.674,1.728,1.492,6.633,1.492,6.633s-6.346,3.006-9.019,15.032  c-1.462,6.58-1.069,13.634,0.988,18.428c18.817,0.003,36.104,2.455,50.504,5.582c17.168,3.727,30.236,8.408,36.862,11.036  c0.886,0.352,1.652,0.664,2.302,0.935C160.195,246.297,154.17,223.126,151.242,216.506z" data-original="#FFC843"/><g>
	<path style="fill:#434C54;" d="M207.548,406.594c-0.029-15.471-9.886-33.867-28.671-39.092c-0.046-0.013-0.092-0.025-0.138-0.037   l-29.894-7.704c-2.875-0.839-5.114-2.411-5.338-3.117l-0.052-16.536c0.063-0.075,0.13-0.145,0.192-0.22   c10.145-12.172,15.714-27.93,15.683-44.373l-0.023-12.175c10.145-33.193,2.925-61.923-0.769-70.276   c-0.012-0.026-0.026-0.05-0.038-0.076c-0.068-0.149-0.143-0.293-0.22-0.437c-0.042-0.079-0.083-0.159-0.127-0.236   c-0.076-0.13-0.159-0.256-0.243-0.381c-0.056-0.084-0.111-0.171-0.17-0.254c-0.076-0.104-0.158-0.203-0.241-0.305   c-0.075-0.093-0.148-0.187-0.227-0.276c-0.075-0.084-0.155-0.162-0.234-0.243c-0.092-0.094-0.183-0.19-0.28-0.28   c-0.081-0.074-0.166-0.142-0.251-0.213c-0.099-0.084-0.197-0.169-0.301-0.249c-0.099-0.075-0.203-0.143-0.307-0.213   c-0.093-0.063-0.184-0.13-0.281-0.189c-0.127-0.079-0.26-0.148-0.391-0.219c-0.077-0.042-0.151-0.086-0.229-0.125   c-0.153-0.076-0.312-0.142-0.47-0.208c-0.061-0.025-0.121-0.054-0.183-0.078c-0.166-0.063-0.336-0.117-0.507-0.168   c-0.06-0.018-0.119-0.04-0.18-0.056c-0.159-0.044-0.322-0.078-0.485-0.111c-0.078-0.016-0.155-0.035-0.234-0.049   c-0.137-0.024-0.278-0.038-0.417-0.054c-0.11-0.013-0.219-0.028-0.331-0.036c-0.11-0.008-0.222-0.008-0.334-0.011   c-0.143-0.004-0.286-0.008-0.43-0.003c-0.089,0.003-0.179,0.011-0.27,0.018c-0.164,0.011-0.328,0.024-0.492,0.046   c-0.027,0.003-0.053,0.003-0.079,0.007c-7.82,1.13-17.293-1.117-27.322-3.498c-17.586-4.176-37.428-8.878-54.69,3.696   c-8.022,0.666-15.14,4.232-20.254,10.225c-5.29,6.201-8.194,14.763-8.176,24.112c0.026,13.923,6.573,38.87,8.028,44.242   l0.012,6.761c0.032,17.239,6.049,33.155,15.655,44.985l0.013,17.647c-0.224,0.683-2.456,2.263-5.327,3.114l-29.865,7.817   c-0.046,0.012-0.092,0.025-0.138,0.038C9.76,373.099-0.029,391.532,0,407.004l0.017,8.658c0.008,4.581,2.069,9.001,5.655,12.13   c3.345,2.918,7.722,4.525,12.329,4.525h0.037l85.593-0.17c0.059,0.001,0.117,0.009,0.176,0.009h0.015   c0.062,0,0.122-0.008,0.184-0.01l85.6-0.17c4.619-0.009,9.005-1.631,12.348-4.571c3.574-3.141,5.618-7.569,5.609-12.15   L207.548,406.594z M62.695,248.953c-0.104,0.018-0.21,0.032-0.314,0.054c-0.102,0.022-0.201,0.052-0.302,0.078   c-0.14,0.036-0.282,0.07-0.419,0.114c-0.059,0.019-0.117,0.044-0.176,0.065c-0.171,0.06-0.342,0.12-0.506,0.191   c-0.044,0.019-0.085,0.042-0.128,0.062c-0.175,0.08-0.349,0.161-0.516,0.254c-0.074,0.041-0.144,0.089-0.217,0.132   c-0.13,0.078-0.263,0.153-0.388,0.24c-0.135,0.092-0.265,0.194-0.394,0.296c-0.057,0.045-0.117,0.085-0.173,0.131   c-0.156,0.129-0.305,0.269-0.451,0.411c-0.025,0.025-0.053,0.047-0.078,0.073c-0.132,0.133-0.256,0.275-0.379,0.418   c-0.036,0.042-0.075,0.081-0.11,0.124c-0.095,0.116-0.182,0.241-0.271,0.364c-0.057,0.079-0.117,0.155-0.171,0.236   c-0.062,0.093-0.116,0.191-0.174,0.289c-0.073,0.12-0.146,0.241-0.212,0.365c-0.038,0.073-0.072,0.15-0.108,0.225   c-0.075,0.154-0.148,0.309-0.212,0.468c-0.007,0.017-0.016,0.033-0.023,0.051c-0.05,0.126-0.259,0.66-0.574,1.507   c-0.73-4.517-1.211-8.711-1.217-11.93c-0.011-5.764,1.615-10.852,4.58-14.326c2.864-3.357,6.747-5.065,11.542-5.074   c0.057,0,0.112-0.008,0.169-0.009c0.188-0.005,0.376-0.011,0.564-0.03c0.097-0.01,0.191-0.027,0.288-0.041   c0.147-0.021,0.296-0.039,0.443-0.068c0.111-0.022,0.218-0.052,0.327-0.079c0.129-0.032,0.259-0.061,0.386-0.1   c0.115-0.035,0.226-0.078,0.339-0.118c0.118-0.042,0.237-0.082,0.353-0.13c0.118-0.049,0.232-0.107,0.348-0.162   c0.105-0.05,0.211-0.097,0.316-0.152c0.129-0.069,0.253-0.147,0.377-0.223c0.085-0.052,0.171-0.1,0.255-0.155   c0.157-0.105,0.307-0.219,0.455-0.336c0.044-0.035,0.091-0.063,0.135-0.099c11.97-9.818,27.402-6.154,43.742-2.275   c8.732,2.073,17.699,4.203,26.374,4.203c0.093,0,0.185-0.004,0.279-0.004c2.177,7.801,4.395,21.981,2.039,38.89   c-12.619-4.626-43.302-14.042-84.043-14.042c-0.165,0-0.331,0-0.496,0c-0.018,0-0.035,0.003-0.052,0.003   c-0.177,0.002-0.354,0.014-0.529,0.028c-0.078,0.006-0.157,0.008-0.234,0.017C62.985,248.902,62.84,248.928,62.695,248.953z    M63.219,294.176l-0.005-2.736c0-0.001,0-0.001,0-0.002c-0.015-8.16,3.459-20.131,5.989-27.519   c36.966,0.723,64.788,9.64,75.062,13.452l0.009,4.795c0,0.029,0,0.058,0,0.087l0.025,13.292   c0.05,26.568-18.521,49.049-40.554,49.09h-0.055C82.177,344.634,63.269,321.071,63.219,294.176z M192.032,416.112   c-0.597,0.525-1.491,0.828-2.454,0.83l-171.568,0.342h-0.008c-0.958,0-1.85-0.299-2.447-0.82c-0.151-0.132-0.504-0.478-0.504-0.83   l-0.018-8.659c-0.018-9.789,5.991-21.399,17.511-24.686c0,0,20.789-4.545,27.357-7.16c4.047-1.611,11.906-5.622,15.274-8.385   c2.715-2.227,3.718-5.992,3.711-9.94l-0.003-4.333c7.517,4.579,15.957,7.196,24.807,7.196h0.084   c8.713-0.016,17.105-2.373,24.688-6.795l0.012,3.811c0.008,4.063,1.1,7.921,3.935,10.161c3.459,2.734,11.488,6.637,15.601,8.226   c6.479,2.503,26.902,6.933,26.902,6.933c11.532,3.244,17.584,14.831,17.602,24.62l0.016,8.659   C192.533,415.633,192.182,415.98,192.032,416.112z" data-original="#434C54" class=""/>
	<path style="fill:#434C54;" d="M511.517,103.19c-0.012-6.272-2.477-12.177-6.943-16.625c-4.454-4.437-10.35-6.88-16.606-6.88   c-0.015,0-0.03,0-0.045,0L119.14,80.378c-12.986,0.024-23.53,10.609-23.506,23.594l0.135,72.155   c0.008,4.146,3.371,7.502,7.516,7.502c0.005,0,0.01,0,0.015,0c4.151-0.008,7.51-3.379,7.502-7.53l-0.135-72.155   c-0.004-2.258,0.883-4.393,2.497-6.014c1.614-1.62,3.747-2.515,6.005-2.52l368.783-0.693c0.005,0,0.011,0,0.016,0   c2.252,0,4.381,0.887,5.998,2.497c1.62,1.614,2.515,3.747,2.52,6.005l0.482,256.545c0.004,2.258-0.883,4.393-2.497,6.014   c-1.614,1.62-3.747,2.515-6.005,2.52l-264.56,0.497c-4.151,0.008-7.51,3.379-7.502,7.53c0.008,4.146,3.371,7.502,7.516,7.502   c0.005,0,0.01,0,0.015,0l264.56-0.497c6.272-0.012,12.177-2.477,16.625-6.943c4.448-4.465,6.892-10.379,6.881-16.651   L511.517,103.19z" data-original="#434C54" class=""/>
</g><path style="fill:#ADB5BD" d="M456.212,343.553H183.883c-4.22,0-7.64-3.421-7.64-7.64l0,0c0-4.22,3.421-7.64,7.64-7.64h272.329  c4.22,0,7.64,3.421,7.64,7.64l0,0C463.853,340.132,460.432,343.553,456.212,343.553z" data-original="#ADB5BD" class=""/></g> </svg>
